STN---,WBAN , YEARMODA,   TEMP,  ,   DEWP,  ,  SLP  ,  ,  STP  ,  , VISIB,  ,  WDSP,  , MXSPD,  GUST,   MAX  ,  MIN  ,PRCP  ,SNDP , FRSHTT,
867050,99999, 20170101,   78.9,24,   71.1,24, 1012.4,24,  984.8,24, 999.9, 0,   2.7,24,   7.2,  24.1,   92.8 ,  72.9 , 0.00I,999.9, 000000,
867050,99999, 20170102,   79.8,23,   70.1,23, 1011.8,23,  984.3,23, 999.9, 0,   2.9,23,   5.1,  12.4,   93.9 ,  72.9 , 0.00I,999.9, 000000,
867050,99999, 20170103,   83.9,23,   71.7,23, 1009.2,23,  982.0,23, 999.9, 0,   2.3,23,   5.8,  13.6,   93.7 ,  74.8 , 0.00I,999.9, 000000,
867050,99999, 20170104,   81.9,22,   71.2,22, 1009.6,22,  982.2,22, 999.9, 0,   3.0,22,   5.2,  15.0,   92.5 ,  75.4 , 0.00I,999.9, 000000,
867050,99999, 20170105,   83.1,24,   69.9,24, 1011.1,24,  983.8,24, 999.9, 0,   3.7,24,   6.4,  17.3,   93.2 ,  76.1 , 0.00I,999.9, 000000,
867050,99999, 20170106,   80.9,24,   69.9,24, 1012.3,24,  984.8,24, 999.9, 0,   3.1,24,   5.2,  13.4,   95.0 ,  70.9 , 0.00I,999.9, 000000,
867050,99999, 20170107,   81.1,24,   68.9,24, 1012.0,24,  984.5,24, 999.9, 0,   3.0,24,  10.9,  26.8,   96.4 ,  73.4 , 0.00I,999.9, 000000,
867050,99999, 20170108,   80.2,24,   69.7,24, 1010.7,24,  983.2,24, 999.9, 0,   2.5,24,   8.5,  32.1,   95.9 ,  71.8 , 0.00I,999.9, 000000,
867050,99999, 20170109,   79.9,24,   67.7,24, 1010.2,24,  982.7,24, 999.9, 0,   3.9,24,   5.2,  14.2,   91.9 ,  71.1*, 0.00I,999.9, 000000,
867050,99999, 20170110,   80.8, 9,   67.4, 9, 1008.3, 9,  980.9, 9, 999.9, 0,   2.2, 9,   4.7,  13.8,   84.7 ,  77.7 , 0.00I,999.9, 000000,
867050,99999, 20170120,   76.6,22,   72.1,22, 1011.7,22,  984.1,22, 999.9, 0,   2.7,22,   5.2,  23.3,   83.7 ,  74.7 , 0.00I,999.9, 000000,
867050,99999, 20170121,   75.9,24,   71.4,24, 1013.4,24,  985.7,24, 999.9, 0,   2.1,24,   5.8,  19.2,   79.2 ,  71.2 , 0.00I,999.9, 000000,
867050,99999, 20170122,   76.0,24,   71.1,24, 1012.5,24,  984.8,24, 999.9, 0,   2.4,24,   5.4,  14.2,   85.1 ,  71.8 , 0.00I,999.9, 000000,
867050,99999, 20170123,   78.3,24,   69.4,24, 1011.3,24,  983.8,24, 999.9, 0,   3.7,24,   7.0,  17.1,   86.5 ,  73.8 , 0.00I,999.9, 000000,
867050,99999, 20170124,   79.8,24,   69.7,24, 1011.6,24,  984.1,24, 999.9, 0,   3.5,24,   5.4,  15.2,   90.5 ,  73.0 , 0.00I,999.9, 000000,
867050,99999, 20170125,   78.4,24,   71.6,24, 1012.7,24,  985.1,24, 999.9, 0,   3.0,24,   7.2,  16.7,   84.2 ,  75.9 , 0.00I,999.9, 000000,
867050,99999, 20170126,   76.3,23,   71.0,23, 1012.8,23,  985.1,23, 999.9, 0,   2.2,23,   3.7,  12.2,   87.3 ,  73.2 , 0.00I,999.9, 000000,
867050,99999, 20170127,   78.4,18,   71.3,18, 1014.0,18,  986.3,18, 999.9, 0,   3.2,18,   5.4,  14.2,   86.7 ,  73.2 , 0.00I,999.9, 000000,
867050,99999, 20170128,   77.2,16,   70.0,16, 1014.7,16,  987.0,16, 999.9, 0,   2.6,16,   3.9,  15.9,   85.8 ,  70.3 , 0.00I,999.9, 000000,
867050,99999, 20170129,   77.6,24,   70.3,24, 1014.1,24,  986.4,24, 999.9, 0,   2.3,24,   4.7,  15.3,   88.5 ,  69.3 , 0.00I,999.9, 000000,
867050,99999, 20170130,   80.6,24,   71.5,24, 1012.7,24,  985.2,24, 999.9, 0,   2.5,24,   4.5,  17.9,   91.2 ,  75.6 , 0.00I,999.9, 000000,
867050,99999, 20170131,   78.4,24,   70.3,24, 1012.7,24,  985.1,24, 999.9, 0,   3.4,24,   5.6,  13.2,   87.4 ,  72.5 , 0.00I,999.9, 000000,
867050,99999, 20170201,   80.5,24,   71.1,24, 1010.4,24,  983.0,24, 999.9, 0,   3.1,24,   4.7,  22.9,   90.7 ,  74.5 , 0.00I,999.9, 000000,
867050,99999, 20170202,   77.4,24,   70.2,24, 1010.9,24,  983.3,24, 999.9, 0,   3.9,24,   5.4,  15.7,   84.6 ,  73.2 , 0.00I,999.9, 000000,
867050,99999, 20170203,   79.5,24,   71.7,24, 1010.8,24,  983.4,24, 999.9, 0,   3.1,24,   6.8,  20.2,   89.2 ,  74.1 , 0.00I,999.9, 000000,
867050,99999, 20170204,   78.1,24,   72.2,24, 1010.6,24,  983.0,24, 999.9, 0,   3.1,24,   7.0,  20.2,   91.0 ,  73.8 , 0.00I,999.9, 000000,
867050,99999, 20170205,   78.0,24,   71.7,24, 1011.3,24,  983.7,24, 999.9, 0,   2.8,24,   6.8,  18.1,   88.7 ,  73.4 , 0.00I,999.9, 000000,
867050,99999, 20170206,   80.3,24,   72.3,24, 1010.2,24,  982.7,24, 999.9, 0,   2.7,24,   5.8,  14.6,   91.6 ,  74.1 , 0.00I,999.9, 000000,
867050,99999, 20170207,   76.2,23,   71.8,23, 1010.0,23,  982.4,23, 999.9, 0,   2.1,23,   4.9,  16.1,   82.4 ,  71.4 , 0.00I,999.9, 000000,
867050,99999, 20170208,   79.6,24,   72.4,24, 1009.5,24,  982.0,24, 999.9, 0,   2.2,24,   4.9,  14.2,   91.8 ,  73.6 , 0.00I,999.9, 000000,
867050,99999, 20170209,   81.8,23,   72.2,23, 1009.3,23,  982.0,23, 999.9, 0,   2.7,23,   4.1,  10.7,   93.7 ,  74.3 , 0.00I,999.9, 000000,
867050,99999, 20170210,   80.5,24,   74.2,24, 1008.2,24,  980.9,24, 999.9, 0,   2.7,24,   6.2,  17.7,   86.9 ,  75.2 , 0.00I,999.9, 000000,
867050,99999, 20170211,   77.6,24,   72.6,24, 1008.5,24,  981.0,24, 999.9, 0,   3.2,24,   7.8,  19.4,   84.6 ,  74.5 , 0.00I,999.9, 000000,
867050,99999, 20170212,   76.2,24,   72.1,24, 1008.1,24,  980.5,24, 999.9, 0,   2.0,24,   4.9,  14.2,   80.6 ,  72.9 , 0.00I,999.9, 000000,
867050,99999, 20170213,   78.8,24,   72.4,24, 1006.6,24,  979.2,24, 999.9, 0,   2.0,24,   3.3,   9.7,   87.6 ,  74.7 , 0.00I,999.9, 000000,
867050,99999, 20170214,   75.9,24,   72.5,24, 1008.1,24,  980.5,24, 999.9, 0,   3.0,24,   5.4,  17.5,   80.6 ,  73.0 , 0.00I,999.9, 000000,
867050,99999, 20170215,   77.6,24,   70.3,24, 1013.5,24,  985.8,24, 999.9, 0,   4.2,24,   7.8,  24.3,   88.3 ,  74.7 , 0.00I,999.9, 000000,
867050,99999, 20170216,   77.9,24,   69.6,24, 1014.8,24,  987.2,24, 999.9, 0,   3.5,24,   5.8,  15.3,   89.2 ,  71.6 , 0.00I,999.9, 000000,
867050,99999, 20170217,   78.9,24,   70.3,24, 1013.1,24,  985.6,24, 999.9, 0,   4.2,24,   7.6,  19.4,   87.1 ,  72.5 , 0.00I,999.9, 000000,
867050,99999, 20170218,   80.2,24,   68.6,24, 1012.6,24,  985.1,24, 999.9, 0,   3.2,24,   5.1,  11.7,   92.5 ,  72.9 , 0.00I,999.9, 000000,
867050,99999, 20170219,   79.5,24,   70.2,24, 1013.2,24,  985.6,24, 999.9, 0,   2.7,24,   4.7,  12.8,   89.2 ,  73.9 , 0.00I,999.9, 000000,
867050,99999, 20170220,   80.2,24,   70.8,24, 1013.2,24,  985.7,24, 999.9, 0,   2.7,24,   5.4,  13.2,   93.0 ,  72.5 , 0.00I,999.9, 000000,
867050,99999, 20170221,   78.1,24,   70.8,24, 1012.8,24,  985.2,24, 999.9, 0,   2.3,24,   5.2,  13.4,   91.0 ,  72.0 , 0.00I,999.9, 000000,
867050,99999, 20170222,   80.7,24,   70.3,24, 1011.6,24,  984.2,24, 999.9, 0,   2.2,24,   4.3,   9.9,   94.1 ,  72.9 , 0.00I,999.9, 000000,
867050,99999, 20170223,   82.8,24,   70.6,24, 1011.2,24,  983.9,24, 999.9, 0,   2.7,24,   4.9,  12.4,   92.8 ,  74.8 , 0.00I,999.9, 000000,
867050,99999, 20170224,   82.5,24,   69.9,24, 1011.2,24,  983.8,24, 999.9, 0,   3.0,24,   5.6,  15.7,   94.3 ,  73.6 , 0.00I,999.9, 000000,
867050,99999, 20170225,   77.7,24,   70.1,24, 1011.9,24,  984.3,24, 999.9, 0,   3.5,24,  10.7,  22.9,   83.7 ,  70.7 , 0.00I,999.9, 000000,
867050,99999, 20170226,   79.0,23,   69.7,23, 1011.1,23,  983.6,23, 999.9, 0,   3.3,23,   4.7,  13.2,   91.8 ,  72.7 , 0.00I,999.9, 000000,
867050,99999, 20170227,   78.3,23,   71.8,23, 1010.8,23,  983.2,23, 999.9, 0,   3.0,23,   6.2,  23.5,   89.4 ,  74.7*, 0.00I,999.9, 000000,
867050,99999, 20170228,   77.8,24,   71.2,24, 1009.6,24,  982.1,24, 999.9, 0,   3.3,24,   7.2,  15.7,   89.2 ,  72.1 , 0.00I,999.9, 000000,
867050,99999, 20170301,   77.5,24,   70.9,24, 1009.2,24,  981.7,24, 999.9, 0,   3.8,24,   5.4,  18.1,   87.8*,  73.2 , 0.00I,999.9, 000000,
867050,99999, 20170302,   77.7,23,   71.5,23, 1010.7,23,  983.2,23, 999.9, 0,   3.6,23,   5.8,  15.3,   87.3 ,  72.3 , 0.00I,999.9, 000000,
867050,99999, 20170303,   78.8,21,   71.6,21, 1011.8,21,  984.3,21, 999.9, 0,   3.8,21,  10.7,  25.6,   90.1 ,  71.4 , 0.00I,999.9, 000000,
867050,99999, 20170304,   81.5,24,   71.5,24, 1010.4,24,  983.1,24, 999.9, 0,   2.6,24,   4.5,  12.4,   92.1 ,  74.7 , 0.00I,999.9, 000000,
867050,99999, 20170305,   80.3,22,   71.4,22, 1009.4,22,  982.0,22, 999.9, 0,   3.1,22,   6.0,  17.5,   92.5 ,  73.8 , 0.00I,999.9, 000000,
867050,99999, 20170306,   78.3,20,   72.6,20, 1010.1,20,  982.6,20, 999.9, 0,   2.9,20,   9.1,  16.1,   92.3 ,  73.6 , 0.00I,999.9, 000000,
867050,99999, 20170307,   78.0,24,   72.7,24, 1011.2,24,  983.6,24, 999.9, 0,   2.2,24,   4.3,  15.0,   90.7 ,  73.8 , 0.00I,999.9, 000000,
867050,99999, 20170308,   82.3,23,   70.8,23, 1010.9,23,  983.6,23, 999.9, 0,   2.7,23,   4.1,  10.9,   95.0 ,  73.4 , 0.00I,999.9, 000000,
867050,99999, 20170309,   84.0,24,   71.6,24, 1009.0,24,  981.8,24, 999.9, 0,   2.6,24,   5.6,  19.4,   96.8 ,  75.7 , 0.00I,999.9, 000000,
867050,99999, 20170310,   82.6,24,   70.2,24, 1010.5,24,  983.2,24, 999.9, 0,   3.0,24,   4.5,  13.4,   95.0 ,  73.9 , 0.00I,999.9, 000000,
867050,99999, 20170311,   83.7,24,   71.1,24, 1010.2,24,  982.9,24, 999.9, 0,   2.9,24,   6.6,  14.4,   95.4 ,  75.2 , 0.00I,999.9, 000000,
867050,99999, 20170312,   81.4,23,   72.5,23, 1010.6,23,  983.2,23, 999.9, 0,   2.9,23,   5.6,  12.4,   90.9 ,  75.2 , 0.00I,999.9, 000000,
867050,99999, 20170313,   81.3,24,   72.0,24, 1010.9,24,  983.5,24, 999.9, 0,   2.8,24,   5.4,  16.3,   89.2 ,  75.0 , 0.00I,999.9, 000000,
867050,99999, 20170314,   81.9,22,   70.9,22, 1010.5,22,  983.1,22, 999.9, 0,   2.3,22,   4.1,  16.1,   94.5 ,  73.4 , 0.00I,999.9, 000000,
867050,99999, 20170315,   81.4,24,   71.1,24, 1010.3,24,  983.0,24, 999.9, 0,   2.8,24,   5.1,  19.0,   93.9 ,  75.4 , 0.00I,999.9, 000000,
867050,99999, 20170316,   80.7,24,   71.3,24, 1010.6,24,  983.2,24, 999.9, 0,   3.3,24,   6.0,  15.2,   90.9 ,  73.6 , 0.00I,999.9, 000000,
867050,99999, 20170317,   77.5,24,   71.3,24, 1012.0,24,  984.4,24, 999.9, 0,   2.8,24,   7.6,  18.3,   89.2 ,  71.8 , 0.00I,999.9, 000000,
867050,99999, 20170318,   75.0,24,   70.9,24, 1013.1,24,  985.3,24, 999.9, 0,   2.2,24,   3.7, 999.9,   82.4 ,  71.4 , 0.00I,999.9, 000000,
867050,99999, 20170319,   75.8,24,   70.9,24, 1013.5,24,  985.7,24, 999.9, 0,   2.3,24,   4.3,  15.7,   88.0 ,  69.6 , 0.00I,999.9, 000000,
867050,99999, 20170320,   78.6,24,   72.6,24, 1013.6,24,  986.0,24, 999.9, 0,   2.2,24,   6.0,  15.7,   90.1 ,  73.8 , 0.00I,999.9, 000000,
867050,99999, 20170321,   79.3,24,   71.0,24, 1013.8,24,  986.2,24, 999.9, 0,   2.2,24,   4.3,  14.0,   93.0 ,  71.6 , 0.00I,999.9, 000000,
867050,99999, 20170322,   81.0,24,   72.3,24, 1014.4,24,  986.9,24, 999.9, 0,   3.2,24,   6.8,  14.0,   87.1 ,  76.1 , 0.00I,999.9, 000000,
867050,99999, 20170323,   82.4,23,   70.6,23, 1012.8,23,  985.4,23, 999.9, 0,   2.4,23,   5.1,  11.7,   94.6 ,  72.7 , 0.00I,999.9, 000000,
867050,99999, 20170324,   83.3,24,   71.8,24, 1010.9,24,  983.6,24, 999.9, 0,   1.9,24,   4.7,  10.3,   95.2 ,  75.0 , 0.00I,999.9, 000000,
867050,99999, 20170325,   80.8,23,   72.2,23, 1011.2,23,  983.8,23, 999.9, 0,   3.2,23,   5.6,  20.2,   93.7 ,  74.7 , 0.00I,999.9, 000000,
867050,99999, 20170326,   80.1,24,   72.0,24, 1010.4,24,  982.9,24, 999.9, 0,   3.1,24,   6.2,  17.9,   93.4 ,  74.3 , 0.00I,999.9, 000000,
867050,99999, 20170327,   79.7,24,   72.9,24, 1011.5,24,  984.0,24, 999.9, 0,   2.3,24,   6.8,  16.5,   89.2 ,  75.2 , 0.00I,999.9, 000000,
867050,99999, 20170328,   78.4,24,   72.1,24, 1012.3,24,  984.7,24, 999.9, 0,   1.9,24,   3.3, 999.9,   90.0 ,  74.3 , 0.00I,999.9, 000000,
867050,99999, 20170329,   77.8,23,   73.0,23, 1011.5,23,  983.9,23, 999.9, 0,   2.1,23,   3.3,  12.6,   87.8 ,  74.7 , 0.00I,999.9, 000000,
867050,99999, 20170330,   79.6,24,   72.1,24, 1010.2,24,  982.7,24, 999.9, 0,   2.6,24,   4.3,  11.1,   93.0 ,  72.7 , 0.00I,999.9, 000000,
867050,99999, 20170331,   76.3,24,   71.9,24, 1012.5,24,  984.8,24, 999.9, 0,   2.9,24,   5.6,  13.4,   81.5 ,  73.8 , 0.00I,999.9, 000000,
867050,99999, 20170401,   79.5,24,   69.9,24, 1012.9,24,  985.4,24, 999.9, 0,   2.2,24,   4.1,   9.9,   93.7 ,  71.4 , 0.00I,999.9, 000000,
867050,99999, 20170402,   82.5,23,   72.5,23, 1010.4,23,  983.1,23, 999.9, 0,   2.3,23,   4.3,  12.6,   92.3 ,  74.8 , 0.00I,999.9, 000000,
867050,99999, 20170403,   81.6,24,   72.1,24, 1009.7,24,  982.4,24, 999.9, 0,   3.0,24,   5.6,  17.3,   90.9 ,  76.1 , 0.00I,999.9, 000000,
867050,99999, 20170404,   81.3,24,   73.0,24, 1010.2,24,  982.8,24, 999.9, 0,   3.3,24,   6.0,  16.3,   90.9 ,  75.0 , 0.00I,999.9, 000000,
867050,99999, 20170405,   80.0,23,   71.7,23, 1011.5,23,  984.0,23, 999.9, 0,   3.2,23,   6.0,  14.2,   90.9 ,  75.0 , 0.00I,999.9, 000000,
867050,99999, 20170406,   80.4,24,   72.9,24, 1012.2,24,  984.7,24, 999.9, 0,   2.3,24,   4.3,  17.5,   93.7 ,  74.8 , 0.00I,999.9, 000000,
867050,99999, 20170407,   79.8,24,   72.9,24, 1010.9,24,  983.4,24, 999.9, 0,   2.8,24,   5.4,  16.9,   91.2 ,  74.8 , 0.00I,999.9, 000000,
867050,99999, 20170408,   83.2,24,   71.6,24, 1010.5,24,  983.2,24, 999.9, 0,   2.6,24,   4.5,  11.5,   94.6 ,  75.7 , 0.00I,999.9, 000000,
867050,99999, 20170409,   83.8,24,   70.8,24, 1010.3,24,  983.0,24, 999.9, 0,   2.8,24,   5.6,  14.2,   95.0 ,  74.7*, 0.00I,999.9, 000000,
867050,99999, 20170410,   83.1,22,   70.8,22, 1010.7,22,  983.3,22, 999.9, 0,   2.8,22,   4.7,  13.6,   93.9 ,  74.7 , 0.00I,999.9, 000000,
867050,99999, 20170411,   81.7,22,   71.8,22, 1012.5,22,  985.1,22, 999.9, 0,   3.3,22,   6.4,  16.1,   90.9 ,  74.7 , 0.00I,999.9, 000000,
867050,99999, 20170412,   80.4,22,   71.5,22, 1014.0,22,  986.5,22, 999.9, 0,   4.1,22,   6.2,  14.0,   87.6 ,  75.7 , 0.00I,999.9, 000000,
867050,99999, 20170413,   80.9,23,   71.7,23, 1012.4,23,  985.0,23, 999.9, 0,   3.5,23,   4.9,  23.3,   94.1 ,  75.0 , 0.00I,999.9, 000000,
867050,99999, 20170414,   79.7,22,   70.8,22, 1012.1,22,  984.6,22, 999.9, 0,   2.2,22,   4.5,  19.0,   94.3 ,  73.2 , 0.00I,999.9, 000000,
867050,99999, 20170415,   82.2,22,   71.3,22, 1012.1,22,  984.7,22, 999.9, 0,   1.8,22,   3.1,  10.5,   95.2 ,  73.8*, 0.00I,999.9, 000000,
867050,99999, 20170416,   81.3,24,   71.9,24, 1012.4,24,  984.9,24, 999.9, 0,   2.5,24,   4.7,  15.2,   92.8 ,  75.6*, 0.00I,999.9, 000000,
867050,99999, 20170417,   76.8,24,   69.1,24, 1013.6,24,  985.9,24, 999.9, 0,   4.7,24,   9.3,  17.5,   84.4 ,  70.9 , 0.00I,999.9, 000000,
867050,99999, 20170418,   78.8,22,   70.2,22, 1012.9,22,  985.3,22, 999.9, 0,   2.6,22,   4.1,  11.1,   88.9 ,  72.9 , 0.00I,999.9, 000000,
867050,99999, 20170419,   77.7,24,   70.4,24, 1012.1,24,  984.5,24, 999.9, 0,   2.2,24,   6.0,  17.3,   91.0 ,  72.7 , 0.00I,999.9, 000000,
867050,99999, 20170420,   77.0,24,   70.7,24, 1011.2,24,  983.6,24, 999.9, 0,   3.5,24,   9.1,  24.1,   90.0 ,  67.8 , 0.00I,999.9, 000000,
867050,99999, 20170421,   74.9,24,   68.6,24, 1012.4,24,  984.7,24, 999.9, 0,   2.3,24,   4.3,  12.8,   89.6 ,  67.6 , 0.00I,999.9, 000000,
867050,99999, 20170422,   78.7,24,   72.3,24, 1013.7,24,  986.1,24, 999.9, 0,   2.3,24,   4.3, 999.9,   90.3 ,  72.7 , 0.00I,999.9, 000000,
867050,99999, 20170423,   78.8,24,   71.2,24, 1013.9,24,  986.3,24, 999.9, 0,   2.3,24,   6.6,  15.0,   90.1 ,  72.9 , 0.00I,999.9, 000000,
867050,99999, 20170424,   80.2,24,   71.6,24, 1012.5,24,  985.0,24, 999.9, 0,   2.6,24,   4.3,  10.9,   91.4 ,  73.2 , 0.00I,999.9, 000000,
867050,99999, 20170425,   82.2,24,   70.5,24, 1009.6,24,  982.3,24, 999.9, 0,   3.3,24,   6.0,  17.1,   92.1 ,  73.6 , 0.00I,999.9, 000000,
867050,99999, 20170426,   82.6,24,   70.5,24, 1010.3,24,  982.9,24, 999.9, 0,   3.6,24,   5.2,  17.3,   91.9 ,  77.7 , 0.00I,999.9, 000000,
867050,99999, 20170427,   71.0,22,   66.4,22, 1015.6,22,  987.5,22, 999.9, 0,   3.8,22,   5.2,  14.2,   79.3 ,  66.2 , 0.00I,999.9, 000000,
867050,99999, 20170428,   71.1,24,   64.1,24, 1017.2,24,  989.1,24, 999.9, 0,   3.5,24,   5.8,  12.0,   81.7 ,  65.1 , 0.00I,999.9, 000000,
867050,99999, 20170429,   76.7,24,   66.2,24, 1016.0,24,  988.2,24, 999.9, 0,   3.1,24,   5.2,  11.7,   87.8 ,  68.4*, 0.00I,999.9, 000000,
867050,99999, 20170430,   79.3,24,   69.2,24, 1014.9,24,  987.3,24, 999.9, 0,   2.7,24,   4.5,  10.9,   91.4 ,  71.2 , 0.00I,999.9, 000000,
867050,99999, 20170501,   78.3,23,   71.2,23, 1014.9,23,  987.3,23, 999.9, 0,   2.5,23,   4.1,  11.1,   85.6 ,  73.6 , 0.00I,999.9, 000000,
867050,99999, 20170502,   81.4,24,   69.1,24, 1013.2,24,  985.7,24, 999.9, 0,   2.3,24,   6.2,  14.8,   92.5 ,  73.0 , 0.00I,999.9, 000000,
867050,99999, 20170503,   82.4,24,   68.6,24, 1013.1,24,  985.7,24, 999.9, 0,   2.1,24,   4.1,  12.8,   92.1 ,  74.7*, 0.00I,999.9, 000000,
867050,99999, 20170504,   79.9,22,   66.4,22, 1012.8,22,  985.3,22, 999.9, 0,   2.1,22,   3.7,  10.9,   91.4 ,  71.6 , 0.00I,999.9, 000000,
867050,99999, 20170505,   80.7,24,   70.2,24, 1012.7,24,  985.2,24, 999.9, 0,   2.2,24,   3.9,  10.3,   92.5 ,  73.9 , 0.00I,999.9, 000000,
867050,99999, 20170506,   81.9,24,   69.1,24, 1012.5,24,  985.1,24, 999.9, 0,   1.9,24,   3.5,  13.8,   93.7 ,  72.7 , 0.00I,999.9, 000000,
867050,99999, 20170507,   82.2,24,   67.5,24, 1011.1,24,  983.7,24, 999.9, 0,   2.1,24,   4.9,  10.9,   93.6 ,  72.5 , 0.00I,999.9, 000000,
867050,99999, 20170508,   82.1,24,   67.3,24, 1009.9,24,  982.6,24, 999.9, 0,   2.1,24,   4.7,  11.8,   93.4 ,  71.8 , 0.00I,999.9, 000000,
867050,99999, 20170509,   82.8,24,   67.9,24, 1011.1,24,  983.8,24, 999.9, 0,   2.1,24,   3.5,  10.5,   93.2 ,  73.2 , 0.00I,999.9, 000000,
867050,99999, 20170510,   79.8,24,   69.9,24, 1013.4,24,  985.9,24, 999.9, 0,   2.5,24,   4.5,  19.2,   91.2 ,  72.3 , 0.00I,999.9, 000000,
867050,99999, 20170511,   78.9,24,   69.5,24, 1013.1,24,  985.5,24, 999.9, 0,   2.2,24,   3.7, 999.9,   91.9 ,  71.4 , 0.00I,999.9, 000000,
867050,99999, 20170512,   81.4,24,   67.4,24, 1011.9,24,  984.5,24, 999.9, 0,   3.0,24,   5.6,  15.9,   93.0 ,  72.7 , 0.00I,999.9, 000000,
867050,99999, 20170513,   82.3,24,   66.7,24, 1011.8,24,  984.4,24, 999.9, 0,   2.9,24,   5.8,  16.5,   91.6 ,  73.6 , 0.00I,999.9, 000000,
867050,99999, 20170514,   83.1,24,   69.5,24, 1012.2,24,  984.9,24, 999.9, 0,   3.2,24,   4.9,  14.0,   93.2 ,  74.5 , 0.00I,999.9, 000000,
867050,99999, 20170515,   83.0,24,   70.9,24, 1011.6,24,  984.3,24, 999.9, 0,   3.0,24,   4.9,  12.2,   93.2 ,  75.4 , 0.00I,999.9, 000000,
867050,99999, 20170516,   79.3,24,   71.9,24, 1013.0,24,  985.5,24, 999.9, 0,   2.2,24,   4.7,  21.0,   88.7 ,  72.1 , 0.00I,999.9, 000000,
867050,99999, 20170517,   79.8,24,   72.3,24, 1012.2,24,  984.7,24, 999.9, 0,   2.1,24,   3.5, 999.9,   89.4 ,  74.5 , 0.00I,999.9, 000000,
867050,99999, 20170518,   81.9,24,   71.2,24, 1010.2,24,  982.8,24, 999.9, 0,   3.0,24,   5.2,  13.4,   91.9 ,  75.4 , 0.00I,999.9, 000000,
867050,99999, 20170519,   81.4,22,   70.9,22, 1008.9,22,  981.6,22, 999.9, 0,   3.6,22,   8.0,  19.4,   89.8 ,  76.6 , 0.00I,999.9, 000000,
867050,99999, 20170520,   78.4,20,   71.4,20, 1010.5,20,  982.9,20, 999.9, 0,   3.1,20,   7.4,  20.0,   89.1 ,  71.2 , 0.00I,999.9, 000000,
867050,99999, 20170521,   78.3,24,   71.4,24, 1012.4,24,  984.8,24, 999.9, 0,   2.1,24,   3.5, 999.9,   90.0 ,  72.3 , 0.00I,999.9, 000000,
867050,99999, 20170522,   76.5,24,   72.2,24, 1013.2,24,  985.5,24, 999.9, 0,   2.9,24,   6.0,  13.0,   82.2 ,  72.3 , 0.00I,999.9, 000000,
867050,99999, 20170523,   78.9,19,   71.1,19, 1013.6,19,  986.1,19, 999.9, 0,   2.0,19,   4.5,  12.6,   92.3 ,  71.1*, 0.00I,999.9, 000000,
867050,99999, 20170524,   82.8,18,   71.0,18, 1013.3,18,  985.9,18, 999.9, 0,   2.5,18,   3.5,  11.5,   93.4 ,  74.1 , 0.00I,999.9, 000000,
867050,99999, 20170525,   83.2,21,   70.8,21, 1013.6,21,  986.3,21, 999.9, 0,   2.5,21,   4.3,  13.4,   93.7 ,  74.8 , 0.00I,999.9, 000000,
867050,99999, 20170526,   82.0,24,   71.0,24, 1014.0,24,  986.6,24, 999.9, 0,   1.6,24,   3.5,  10.5,   90.5 ,  75.2 , 0.00I,999.9, 000000,
867050,99999, 20170527,   81.6,24,   71.7,24, 1015.1,24,  987.6,24, 999.9, 0,   2.4,24,   4.7,  12.2,   91.8 ,  73.8 , 0.00I,999.9, 000000,
867050,99999, 20170528,   74.4,22,   70.3,22, 1017.0,22,  989.1,22, 999.9, 0,   4.1,22,   5.8,  14.2,   82.0 ,  71.2 , 0.00I,999.9, 000000,
867050,99999, 20170529,   71.9,23,   67.4,23, 1017.5,23,  989.5,23, 999.9, 0,   2.8,23,   4.7,  11.1,   78.4 ,  67.6 , 0.00I,999.9, 000000,
867050,99999, 20170530,   74.3,22,   68.3,22, 1016.9,22,  989.0,22, 999.9, 0,   3.4,22,   5.4,  10.5,   78.4 ,  71.6 , 0.00I,999.9, 000000,
867050,99999, 20170531,   73.2,21,   67.0,21, 1016.7,21,  988.7,21, 999.9, 0,   3.7,21,   6.0,  15.0,   79.0 ,  68.9 , 0.00I,999.9, 000000,
867050,99999, 20170601,   67.4,22,   58.7,22, 1018.9,22,  990.5,22, 999.9, 0,   4.2,22,   5.4,  13.8,   75.2 ,  63.0 , 0.00I,999.9, 000000,
867050,99999, 20170602,   68.3,24,   59.3,24, 1018.2,24,  989.9,24, 999.9, 0,   3.2,24,   4.5,  11.7,   80.8 ,  61.2 , 0.00I,999.9, 000000,
867050,99999, 20170603,   76.0,24,   65.0,24, 1014.6,24,  986.8,24, 999.9, 0,   2.0,24,   5.4,  14.4,   90.9 ,  65.5 , 0.00I,999.9, 000000,
867050,99999, 20170604,   82.2,23,   68.4,23, 1013.1,23,  985.7,23, 999.9, 0,   2.0,23,   4.3,  11.5,   94.1 ,  72.9 , 0.00I,999.9, 000000,
867050,99999, 20170605,   83.4,24,   68.5,24, 1012.5,24,  985.2,24, 999.9, 0,   2.3,24,   4.5,  12.2,   94.3 ,  75.6 , 0.00I,999.9, 000000,
867050,99999, 20170606,   83.0,22,   68.7,22, 1012.9,22,  985.5,22, 999.9, 0,   2.3,22,   5.1,  13.8,   92.7 ,  74.1 , 0.00I,999.9, 000000,
867050,99999, 20170607,   81.1,19,   65.5,19, 1011.5,19,  984.0,19, 999.9, 0,   2.8,19,   6.0,  15.7,   92.7 ,  71.8 , 0.00I,999.9, 000000,
867050,99999, 20170608,   81.1,23,   63.2,23, 1011.3,23,  983.9,23, 999.9, 0,   3.6,23,   6.4,  16.9,   91.9 ,  70.9 , 0.00I,999.9, 000000,
867050,99999, 20170609,   73.7,20,   65.2,20, 1015.8,20,  987.9,20, 999.9, 0,   3.7,20,  10.1,  19.8,   82.0 ,  65.5 , 0.00I,999.9, 000000,
867050,99999, 20170610,   63.0,13,   55.6,13, 1019.1,13,  990.5,13, 999.9, 0,   4.2,13,   7.0,  17.5,   71.1 ,  58.5 , 0.00I,999.9, 000000,
867050,99999, 20170611,   65.3,17,   58.2,17, 1016.2,17,  987.8,17, 999.9, 0,   1.7,17,   2.9, 999.9,   85.3 ,  58.1 , 0.00I,999.9, 000000,
867050,99999, 20170612,   78.2,24,   65.1,24, 1014.3,24,  986.7,24, 999.9, 0,   2.1,24,   3.7,  11.1,   90.0 ,  69.3 , 0.00I,999.9, 000000,
867050,99999, 20170613,   80.5,17,   65.0,17, 1014.2,17,  986.7,17, 999.9, 0,   2.2,17,   3.7, 999.9,   92.5 ,  67.8 , 0.00I,999.9, 000000,
867050,99999, 20170614,   82.1,17,   64.9,17, 1015.9,17,  988.4,17, 999.9, 0,   2.4,17,   3.7,   9.9,   93.4 ,  68.4 , 0.00I,999.9, 000000,
867050,99999, 20170615,   81.2,22,   66.1,22, 1015.1,22,  987.6,22, 999.9, 0,   1.8,22,   3.3, 999.9,   94.3 ,  69.3*, 0.00I,999.9, 000000,
867050,99999, 20170616,   83.2,16,   61.7,16, 1014.0,16,  986.6,16, 999.9, 0,   2.9,16,   6.6,  16.7,   92.7 ,  71.2 , 0.00I,999.9, 000000,
867050,99999, 20170617,   79.1,16,   57.6,16, 1012.8,16,  985.2,16, 999.9, 0,   3.4,16,   6.0,  16.9,   86.5 ,  74.8 , 0.00I,999.9, 000000,
867050,99999, 20170618,   77.1,16,   57.3,16, 1012.5,16,  984.8,16, 999.9, 0,   2.5,16,   4.3,  11.5,   91.8 ,  69.6 , 0.00I,999.9, 000000,
867050,99999, 20170619,   68.9,16,   58.2,16, 1018.4,16,  990.2,16, 999.9, 0,   4.8,16,   7.4,  20.4,   79.9 ,  59.9 , 0.00I,999.9, 000000,
867050,99999, 20170620,   59.3,24,   52.8,24, 1021.3,24,  992.5,24, 999.9, 0,   4.8,24,   7.2,  15.2,   67.5 ,  54.1 , 0.00I,999.9, 000000,
867050,99999, 20170621,   66.7,24,   57.3,24, 1018.7,24,  990.3,24, 999.9, 0,   3.0,24,   5.1,  10.9,   83.7 ,  59.4 , 0.00I,999.9, 000000,
867050,99999, 20170622,   75.2,24,   58.7,24, 1014.8,24,  987.0,24, 999.9, 0,   1.8,24,   3.3,  10.3,   92.3 ,  63.0 , 0.00I,999.9, 000000,
867050,99999, 20170623,   78.8,23,   52.8,23, 1013.7,23,  986.1,23, 999.9, 0,   2.9,23,   5.6,  15.3,   91.4 ,  65.5 , 0.00I,999.9, 000000,
867050,99999, 20170624,   78.7,24,   52.8,24, 1015.4,24,  987.7,24, 999.9, 0,   2.4,24,   4.1,  14.6,   92.3 ,  65.7 , 0.00I,999.9, 000000,
867050,99999, 20170625,   78.8,24,   57.0,24, 1015.8,24,  988.2,24, 999.9, 0,   2.1,24,   3.3,  10.1,   90.9 ,  67.5 , 0.00I,999.9, 000000,
867050,99999, 20170626,   79.5,24,   53.7,24, 1014.2,24,  986.7,24, 999.9, 0,   2.5,24,   3.7,  12.8,   92.7 ,  66.2 , 0.00I,999.9, 000000,
867050,99999, 20170627,   77.9,24,   50.0,24, 1014.2,24,  986.6,24, 999.9, 0,   2.7,24,   4.7,  13.6,   90.7 ,  64.6 , 0.00I,999.9, 000000,
867050,99999, 20170628,   75.9,24,   54.2,24, 1016.2,24,  988.4,24, 999.9, 0,   2.3,24,   3.3,   9.7,   90.1 ,  63.3 , 0.00I,999.9, 000000,
867050,99999, 20170629,   75.6,24,   59.5,24, 1015.9,24,  988.0,24, 999.9, 0,   1.9,24,   3.1, 999.9,   86.4 ,  66.6*, 0.00I,999.9, 000000,
867050,99999, 20170630,   80.1,19,   58.7,19, 1016.8,19,  989.2,19, 999.9, 0,   2.0,19,   4.5,  11.8,   92.5 ,  69.1 , 0.00I,999.9, 000000,
867050,99999, 20170701,   78.1,24,   56.2,24, 1018.7,24,  990.9,24, 999.9, 0,   2.9,24,   6.0,  13.0,   90.0 ,  67.8 , 0.00I,999.9, 000000,
867050,99999, 20170702,   76.7,24,   57.2,24, 1019.0,24,  991.2,24, 999.9, 0,   3.2,24,   6.0,  12.8,   88.7 ,  66.2 , 0.00I,999.9, 000000,
867050,99999, 20170703,   76.0,24,   52.3,24, 1018.3,24,  990.4,24, 999.9, 0,   2.8,24,   5.2,  12.2,   90.3 ,  62.4 , 0.00I,999.9, 000000,
867050,99999, 20170704,   75.9,24,   54.0,24, 1016.6,24,  988.8,24, 999.9, 0,   2.5,24,   6.2,  15.5,   90.7 ,  62.1 , 0.00I,999.9, 000000,
867050,99999, 20170705,   80.8,24,   54.1,24, 1016.8,24,  989.2,24, 999.9, 0,   3.2,24,   6.2,  16.9,   92.1 ,  73.6 , 0.00I,999.9, 000000,
867050,99999, 20170706,   79.8,24,   52.9,24, 1017.6,24,  990.0,24, 999.9, 0,   2.5,24,   5.2,  11.3,   90.7 ,  66.0 , 0.00I,999.9, 000000,
867050,99999, 20170707,   76.6,24,   52.1,24, 1018.2,24,  990.4,24, 999.9, 0,   2.6,24,   5.2,  12.2,   89.1 ,  63.1 , 0.00I,999.9, 000000,
867050,99999, 20170708,   77.0,24,   52.9,24, 1017.2,24,  989.4,24, 999.9, 0,   2.2,24,   4.3,  12.2,   91.0 ,  64.8 , 0.00I,999.9, 000000,
867050,99999, 20170709,   78.1,24,   55.4,24, 1017.1,24,  989.4,24, 999.9, 0,   2.6,24,   5.6,  15.7,   91.8 ,  64.2 , 0.00I,999.9, 000000,
867050,99999, 20170710,   79.9,24,   54.5,24, 1016.9,24,  989.2,24, 999.9, 0,   2.7,24,   5.4,  15.2,   93.4 ,  66.0 , 0.00I,999.9, 000000,
867050,99999, 20170711,   78.2,24,   53.3,24, 1017.7,24,  990.0,24, 999.9, 0,   3.0,24,   5.6,  14.2,   91.6 ,  63.7 , 0.00I,999.9, 000000,
867050,99999, 20170712,   77.7,24,   53.3,24, 1017.4,24,  989.6,24, 999.9, 0,   2.6,24,   5.1,  18.6,   91.4 ,  63.1 , 0.00I,999.9, 000000,
867050,99999, 20170713,   78.4,24,   53.5,24, 1016.5,24,  988.8,24, 999.9, 0,   2.5,24,   4.3,  13.4,   93.2 ,  64.6 , 0.00I,999.9, 000000,
867050,99999, 20170714,   79.9,24,   52.5,24, 1015.8,24,  988.2,24, 999.9, 0,   2.6,24,   5.2,  14.0,   93.2 ,  67.1 , 0.00I,999.9, 000000,
867050,99999, 20170715,   80.8,24,   48.6,24, 1014.5,24,  987.0,24, 999.9, 0,   4.1,24,   7.6,  21.2,   89.8 ,  73.2 , 0.00I,999.9, 000000,
867050,99999, 20170716,   80.3,24,   48.8,24, 1015.2,24,  987.6,24, 999.9, 0,   3.7,24,   6.2,  20.0,   91.8 ,  66.9 , 0.00I,999.9, 000000,
867050,99999, 20170717,   63.9,24,   51.4,24, 1022.3,24,  993.7,24, 999.9, 0,   4.7,24,   7.4,  20.2,   80.4 ,  52.2 , 0.00I,999.9, 000000,
867050,99999, 20170718,   54.2,24,   43.5,24, 1027.5,24,  998.2,24, 999.9, 0,   6.5,24,   7.8,  20.6,   64.9 ,  48.0 , 0.00I,999.9, 000000,
867050,99999, 20170719,   59.1,24,   37.7,24, 1022.5,24,  993.6,24, 999.9, 0,   3.6,24,   7.6,  16.3,   74.8 ,  47.1 , 0.00I,999.9, 000000,
867050,99999, 20170720,   66.5,24,   43.0,24, 1019.8,24,  991.4,24, 999.9, 0,   2.4,24,   3.7, 999.9,   85.8 ,  51.3*, 0.00I,999.9, 000000,
867050,99999, 20170721,   73.9,24,   50.9,24, 1018.1,24,  990.1,24, 999.9, 0,   2.3,24,   3.5, 999.9,   91.9 ,  58.5*, 0.00I,999.9, 000000,
867050,99999, 20170722,   75.6,20,   51.1,20, 1017.8,20,  989.9,20, 999.9, 0,   2.2,20,   3.1, 999.9,   95.0 ,  60.4 , 0.00I,999.9, 000000,
867050,99999, 20170723,   80.3,24,   45.6,24, 1014.7,24,  987.2,24, 999.9, 0,   2.8,24,   5.6,  14.6,   95.7 ,  64.8 , 0.00I,999.9, 000000,
867050,99999, 20170724,   83.7,24,   48.0,24, 1015.6,24,  988.2,24, 999.9, 0,   3.1,24,   6.4,  18.6,   95.9 ,  69.1 , 0.00I,999.9, 000000,
867050,99999, 20170725,   81.0,24,   46.5,24, 1017.3,24,  989.7,24, 999.9, 0,   2.9,24,   4.5,  11.8,   94.5 ,  65.7 , 0.00I,999.9, 000000,
867050,99999, 20170726,   79.1,24,   47.4,24, 1016.6,24,  988.9,24, 999.9, 0,   2.4,24,   4.9,  11.8,   94.5 ,  63.9 , 0.00I,999.9, 000000,
867050,99999, 20170727,   77.7,24,   47.1,24, 1016.3,24,  988.5,24, 999.9, 0,   2.5,24,   4.3,  13.8,   91.0 ,  63.1 , 0.00I,999.9, 000000,
867050,99999, 20170728,   77.6,24,   47.3,24, 1016.1,24,  988.4,24, 999.9, 0,   2.4,24,   5.1,  17.3,   92.5 ,  62.1*, 0.00I,999.9, 000000,
867050,99999, 20170729,   79.3,24,   45.4,24, 1017.1,24,  989.4,24, 999.9, 0,   2.5,24,   5.4,  17.9,   93.0 ,  65.1 , 0.00I,999.9, 000000,
867050,99999, 20170730,   78.5,24,   49.6,24, 1018.2,24,  990.5,24, 999.9, 0,   2.3,24,   3.5,   9.7,   93.6 ,  65.1 , 0.00I,999.9, 000000,
867050,99999, 20170731,   77.7,19,   52.8,19, 1017.7,19,  989.9,19, 999.9, 0,   2.4,19,   4.7,  11.1,   91.0 ,  65.5 , 0.00I,999.9, 000000,
867050,99999, 20170801,   80.2,23,   48.0,23, 1014.4,23,  986.9,23, 999.9, 0,   2.6,23,   6.0,  13.0,   93.9 ,  65.7 , 0.00I,999.9, 000000,
867050,99999, 20170802,   81.5,24,   47.8,24, 1014.3,24,  986.9,24, 999.9, 0,   3.3,24,   6.4,  16.5,   95.9 ,  68.2 , 0.00I,999.9, 000000,
867050,99999, 20170803,   74.2,21,   53.6,21, 1018.9,21,  991.0,21, 999.9, 0,   4.6,21,   8.0,  18.6,   82.9 ,  64.0 , 0.00I,999.9, 000000,
867050,99999, 20170804,   71.4,24,   53.6,24, 1018.5,24,  990.4,24, 999.9, 0,   2.9,24,   4.5,  11.7,   85.8 ,  59.5 , 0.00I,999.9, 000000,
867050,99999, 20170805,   76.4,24,   55.3,24, 1016.2,24,  988.4,24, 999.9, 0,   2.2,24,   3.5,  10.3,   94.5 ,  61.5 , 0.00I,999.9, 000000,
867050,99999, 20170806,   79.9,24,   54.4,24, 1014.0,24,  986.5,24, 999.9, 0,   2.3,24,   3.5,  10.3,   96.8 ,  66.4 , 0.00I,999.9, 000000,
867050,99999, 20170807,   82.8,21,   48.9,21, 1012.4,21,  985.0,21, 999.9, 0,   3.2,21,   6.8,  17.3,   99.0 ,  68.4*, 0.00I,999.9, 000000,
867050,99999, 20170808,   87.0,22,   47.0,22, 1011.8,22,  984.7,22, 999.9, 0,   3.0,22,   5.6,  14.6,  100.2 ,  72.7 , 0.00I,999.9, 000000,
867050,99999, 20170809,   85.7,24,   48.3,24, 1012.9,24,  985.7,24, 999.9, 0,   2.9,24,   5.6,  13.2,  100.8 ,  72.3 , 0.00I,999.9, 000000,
867050,99999, 20170810,   86.5,24,   46.5,24, 1011.2,24,  984.1,24, 999.9, 0,   3.0,24,   5.6,  16.9,  100.8 ,  71.1 , 0.00I,999.9, 000000,
867050,99999, 20170811,   87.2,24,   46.6,24, 1010.0,24,  982.9,24, 999.9, 0,   3.6,24,   7.2,  17.5,   99.7 ,  73.4 , 0.00I,999.9, 000000,
867050,99999, 20170812,   87.9,24,   53.0,24, 1009.9,24,  982.9,24, 999.9, 0,   3.9,24,   5.6,  19.8,   99.3 ,  79.0 , 0.00I,999.9, 000000,
867050,99999, 20170813,   83.8,24,   61.9,24, 1012.0,24,  984.7,24, 999.9, 0,   3.6,24,   7.2,  20.2,   95.7 ,  71.8 , 0.00I,999.9, 000000,
867050,99999, 20170814,   78.0,24,   68.9,24, 1013.7,24,  986.1,24, 999.9, 0,   2.5,24,   4.9,  11.3,   92.8 ,  71.6 , 0.00I,999.9, 000000,
867050,99999, 20170815,   82.6,21,   69.8,21, 1011.8,21,  984.4,21, 999.9, 0,   2.0,21,   4.1,  10.3,   93.6 ,  74.7 , 0.00I,999.9, 000000,
867050,99999, 20170816,   83.5,23,   67.3,23, 1011.6,23,  984.3,23, 999.9, 0,   3.0,23,   5.4,  12.2,   95.0 ,  73.9 , 0.00I,999.9, 000000,
867050,99999, 20170817,   80.5,22,   66.3,22, 1012.5,22,  985.0,22, 999.9, 0,   3.9,22,   7.0,  16.1,   91.4*,  72.5 , 0.00I,999.9, 000000,
867050,99999, 20170818,   80.0,21,   66.0,21, 1012.5,21,  985.0,21, 999.9, 0,   3.5,21,   6.2,  15.9,   92.1 ,  72.1 , 0.00I,999.9, 000000,
867050,99999, 20170819,   85.1,18,   64.3,18, 1008.5,18,  981.3,18, 999.9, 0,   3.2,18,   6.4,  17.7,   98.1 ,  74.7 , 0.00I,999.9, 000000,
867050,99999, 20170820,   83.1,18,   65.6,18, 1011.3,18,  984.0,18, 999.9, 0,   2.5,18,   3.5,  20.2,   88.7 ,  73.2 , 0.00I,999.9, 000000,
867050,99999, 20170821,   73.1,19,   61.9,19, 1018.1,19,  990.0,19, 999.9, 0,   5.6,19,   8.2,  17.5,   78.1 ,  68.9 , 0.00I,999.9, 000000,
867050,99999, 20170822,   74.4,20,   59.6,20, 1016.4,20,  988.5,20, 999.9, 0,   2.5,20,   5.4,  12.2,   92.5 ,  63.3 , 0.00I,999.9, 000000,
867050,99999, 20170823,   82.3,17,   60.2,17, 1012.3,17,  984.9,17, 999.9, 0,   2.9,17,   6.4,  16.5,   96.4 ,  71.6 , 0.00I,999.9, 000000,
867050,99999, 20170824,   86.5,22,   51.7,22, 1011.9,22,  984.7,22, 999.9, 0,   3.1,22,   6.0,  18.3,   98.6 ,  75.2 , 0.00I,999.9, 000000,
867050,99999, 20170825,   88.2,20,   52.2,20, 1011.5,20,  984.4,20, 999.9, 0,   3.9,20,   6.2,  17.1,   97.5 ,  77.4 , 0.00I,999.9, 000000,
867050,99999, 20170826,   88.9,19,   51.9,19, 1011.6,19,  984.5,19, 999.9, 0,   2.8,19,   5.4,  17.3,   99.9 ,  75.9 , 0.00I,999.9, 000000,
867050,99999, 20170827,   88.5,17,   53.8,17, 1010.6,17,  983.6,17, 999.9, 0,   2.6,17,   3.7,  13.8,  101.7 ,  72.1 , 0.00I,999.9, 000000,
867050,99999, 20170828,   88.0,24,   54.7,24, 1010.2,24,  983.2,24, 999.9, 0,   2.5,24,   4.1,  11.7,  103.5 ,  76.5 , 0.00I,999.9, 000000,
867050,99999, 20170829,   90.3,24,   53.3,24, 1010.2,24,  983.3,24, 999.9, 0,   3.0,24,   6.0,  14.2,  102.7 ,  77.7 , 0.00I,999.9, 000000,
867050,99999, 20170830,   91.0,24,   54.2,24, 1011.5,24,  984.6,24, 999.9, 0,   2.8,24,   6.0,  13.4,  102.7 ,  78.6 , 0.00I,999.9, 000000,
867050,99999, 20170831,   84.4,24,   61.0,24, 1013.5,24,  986.2,24, 999.9, 0,   3.9,24,   5.6,  13.0,   94.3 ,  74.5 , 0.00I,999.9, 000000,
867050,99999, 20170901,   85.9,24,   58.2,24, 1013.0,24,  985.8,24, 999.9, 0,   2.1,24,   3.5,  13.0,  102.9 ,  70.9 , 0.00I,999.9, 000000,
867050,99999, 20170902,   89.1,24,   46.5,24, 1013.2,24,  986.1,24, 999.9, 0,   3.1,24,   5.4,  17.9,  101.5 ,  76.6 , 0.00I,999.9, 000000,
867050,99999, 20170903,   88.0,24,   43.2,24, 1013.5,24,  986.4,24, 999.9, 0,   2.7,24,   6.4,  16.9,  102.2 ,  74.1 , 0.00I,999.9, 000000,
867050,99999, 20170904,   87.3,24,   46.0,24, 1012.8,24,  985.7,24, 999.9, 0,   2.7,24,   6.6,  19.6,  100.2 ,  73.8 , 0.00I,999.9, 000000,
867050,99999, 20170905,   87.5,24,   45.6,24, 1013.4,24,  986.2,24, 999.9, 0,   3.6,24,   6.6,  15.3,  100.0 ,  73.2 , 0.00I,999.9, 000000,
867050,99999, 20170906,   82.2,24,   54.4,24, 1013.8,24,  986.3,24, 999.9, 0,   2.9,24,   6.4,  12.8,   98.2 ,  68.7 , 0.00I,999.9, 000000,
867050,99999, 20170907,   84.9,23,   49.2,23, 1012.0,23,  984.8,23, 999.9, 0,   2.4,23,   4.7,  13.4,  100.4 ,  70.2 , 0.00I,999.9, 000000,
867050,99999, 20170908,   88.2,22,   52.1,22, 1009.4,22,  982.3,22, 999.9, 0,   2.4,22,   4.1,  11.3,  103.6 ,  74.8 , 0.00I,999.9, 000000,
867050,99999, 20170909,   90.0,24,   51.6,24, 1008.1,24,  981.2,24, 999.9, 0,   3.1,24,   5.6,  15.0,  103.3 ,  77.9 , 0.00I,999.9, 000000,
867050,99999, 20170910,   91.8,24,   54.2,24, 1008.5,24,  981.7,24, 999.9, 0,   3.2,24,   7.0,  19.2,  101.3 ,  81.1 , 0.00I,999.9, 000000,
867050,99999, 20170911,   86.3,24,   59.5,24, 1011.4,24,  984.2,24, 999.9, 0,   3.4,24,   8.7,  24.9,   99.9 ,  76.3 , 0.00I,999.9, 000000,
867050,99999, 20170912,   83.1,24,   64.2,24, 1013.1,24,  985.7,24, 999.9, 0,   2.7,24,   4.7,  11.8,   97.5 ,  73.4 , 0.00I,999.9, 000000,
867050,99999, 20170913,   88.4,24,   61.5,24, 1011.6,24,  984.5,24, 999.9, 0,   2.8,24,   7.0,  17.5,  101.3 ,  75.0 , 0.00I,999.9, 000000,
867050,99999, 20170914,   91.7,24,   44.1,24, 1011.8,24,  984.9,24, 999.9, 0,   4.0,24,   6.2,  18.6,  102.6 ,  83.7 , 0.00I,999.9, 000000,
867050,99999, 20170915,   88.8,24,   46.2,24, 1012.6,24,  985.6,24, 999.9, 0,   2.7,24,   4.5,  12.8,  102.4 ,  72.5 , 0.00I,999.9, 000000,
867050,99999, 20170916,   77.8,24,   62.8,24, 1016.2,24,  988.5,24, 999.9, 0,   4.8,24,   8.5,  17.7,   93.4 ,  72.9 , 0.00I,999.9, 000000,
867050,99999, 20170917,   72.1,24,   59.6,24, 1017.0,24,  989.0,24, 999.9, 0,   4.4,24,   6.2,  15.7,   82.6 ,  64.4 , 0.00I,999.9, 000000,
867050,99999, 20170918,   80.0,23,   56.5,23, 1014.8,23,  987.2,23, 999.9, 0,   1.8,23,   3.7,  10.7,  100.2 ,  66.4 , 0.00I,999.9, 000000,
867050,99999, 20170919,   87.5,24,   50.9,24, 1012.6,24,  985.4,24, 999.9, 0,   2.0,24,   3.7, 999.9,  102.4 ,  73.0 , 0.00I,999.9, 000000,
867050,99999, 20170920,   88.6,24,   49.3,24, 1010.8,24,  983.8,24, 999.9, 0,   2.0,24,   4.3,  14.6,  103.3 ,  74.1 , 0.00I,999.9, 000000,
867050,99999, 20170921,   89.0,24,   50.1,24, 1011.5,24,  984.4,24, 999.9, 0,   3.6,24,   6.6,  20.6,  102.4 ,  79.3 , 0.00I,999.9, 000000,
867050,99999, 20170922,   84.8,24,   57.2,24, 1012.5,24,  985.2,24, 999.9, 0,   3.0,24,   5.1,  16.7,   99.7 ,  71.8 , 0.00I,999.9, 000000,
867050,99999, 20170923,   84.3, 8,   55.6, 8, 1012.8, 8,  985.5, 8, 999.9, 0,   1.8, 8,   3.3,  11.5,   89.6 ,  81.1 , 0.00I,999.9, 000000,
867050,99999, 20170924,   87.0, 4,   62.8, 4, 1012.8, 4,  985.6, 4, 999.9, 0,   2.9, 4,   3.7,  11.1,   92.8 ,  81.1 , 0.00I,999.9, 000000,
867050,99999, 20170928,   84.2, 5,   65.3, 5, 1014.7, 5,  987.3, 5, 999.9, 0,   3.8, 5,   5.2,  11.8,   90.1 ,  77.0 , 0.00I,999.9, 000000,
867050,99999, 20170930,   85.5, 5,   64.8, 5, 1010.2, 5,  983.0, 5, 999.9, 0,   2.8, 5,   3.3,   9.7,   90.7 ,  74.7 , 0.00I,999.9, 000000,
867050,99999, 20171003,   75.8, 4,   62.3, 4, 1016.8, 4,  988.9, 4, 999.9, 0,   3.7, 4,   4.9,  10.7,   78.4 ,  69.4 , 0.00I,999.9, 000000,
867050,99999, 20171004,   82.3, 6,   59.9, 6, 1014.0, 6,  986.6, 6, 999.9, 0,   3.2, 6,   4.1,   9.9,   89.4 ,  71.4 , 0.00I,999.9, 000000,
867050,99999, 20171005,   93.8, 4,   58.6, 4, 1010.4, 4,  983.6, 4, 999.9, 0,   3.7, 4,   4.3,  15.3,   99.0 ,  83.3 , 0.00I,999.9, 000000,
867050,99999, 20171012,   94.1, 4,   63.1, 4, 1010.2, 4,  983.5, 4, 999.9, 0,   4.1, 4,   4.5,  12.8,   98.8 ,  89.4 , 0.00I,999.9, 000000,
867050,99999, 20171015,   77.8, 6,   61.8, 6, 1015.8, 6,  988.1, 6, 999.9, 0,   5.2, 6,   6.0,  13.2,   86.4 ,  70.2 , 0.00I,999.9, 000000,
867050,99999, 20171016,   93.5,11,   65.3,11, 1010.0,11,  983.2,11, 999.9, 0,   3.2,11,   4.5,  10.9,  100.0 ,  79.5 , 0.00I,999.9, 000000,
867050,99999, 20171017,   86.9,24,   66.0,24, 1010.8,24,  983.7,24, 999.9, 0,   3.8,24,   6.8,  18.6,   95.9 ,  79.2 , 0.00I,999.9, 000000,
867050,99999, 20171018,   88.2,23,   62.1,23, 1010.4,23,  983.3,23, 999.9, 0,   2.9,23,   4.3,  15.5,  102.7 ,  75.9 , 0.00I,999.9, 000000,
867050,99999, 20171019,   90.6,24,   61.7,24, 1008.7,24,  981.8,24, 999.9, 0,   2.9,24,   5.4,  14.8,  101.1 ,  82.4 , 0.00I,999.9, 000000,
867050,99999, 20171020,   78.8,24,   68.7,24, 1010.9,24,  983.4,24, 999.9, 0,   4.4,24,   8.4,  20.0,   86.9 ,  71.8 , 0.00I,999.9, 000000,
867050,99999, 20171021,   79.3,24,   70.4,24, 1010.7,24,  983.2,24, 999.9, 0,   3.0,24,  13.6,  42.0,   97.5 ,  66.9 , 0.00I,999.9, 000000,
867050,99999, 20171022,   74.9,24,   69.3,24, 1014.2,24,  986.4,24, 999.9, 0,   4.1,24,   7.4,  19.4,   81.5 ,  71.4 , 0.00I,999.9, 000000,
867050,99999, 20171023,   75.1,24,   68.0,24, 1013.7,24,  985.9,24, 999.9, 0,   2.6,24,   4.9,  11.5,   82.8 ,  71.4 , 0.00I,999.9, 000000,
867050,99999, 20171024,   79.6,24,   68.3,24, 1011.5,24,  984.0,24, 999.9, 0,   1.8,24,   3.7, 999.9,   92.3 ,  71.1*, 0.00I,999.9, 000000,
867050,99999, 20171025,   84.4,24,   69.2,24, 1009.8,24,  982.6,24, 999.9, 0,   2.6,24,   8.5,  22.9,   97.9 ,  75.0 , 0.00I,999.9, 000000,
867050,99999, 20171026,   85.4,24,   66.6,24, 1008.1,24,  980.9,24, 999.9, 0,   3.4,24,   6.2,  15.3,  100.9 ,  75.7 , 0.00I,999.9, 000000,
867050,99999, 20171027,   82.9,24,   66.3,24, 1009.3,24,  982.1,24, 999.9, 0,   4.9,24,   9.5,  26.6,   90.3 ,  74.3 , 0.00I,999.9, 000000,
867050,99999, 20171028,   82.3,24,   69.2,24, 1009.0,24,  981.7,24, 999.9, 0,   4.1,24,   7.4,  30.1,   94.8 ,  71.6 , 0.00I,999.9, 000000,
867050,99999, 20171029,   78.8,24,   69.9,24, 1009.9,24,  982.4,24, 999.9, 0,   2.7,24,   5.2,  20.2,   94.3 ,  72.9 , 0.00I,999.9, 000000,
867050,99999, 20171030,   82.4,21,   68.6,21, 1008.0,21,  980.8,21, 999.9, 0,   3.4,21,   5.6,  15.3,   95.5 ,  74.7 , 0.00I,999.9, 000000,
867050,99999, 20171031,   81.5,20,   69.8,20, 1008.5,20,  981.2,20, 999.9, 0,   3.9,20,   7.6,  23.7,   89.8 ,  74.1 , 0.00I,999.9, 000000,
867050,99999, 20171101,   80.0,17,   69.6,17, 1010.4,17,  982.9,17, 999.9, 0,   2.0,17,   4.1, 999.9,   91.2 ,  72.9 , 0.00I,999.9, 000000,
867050,99999, 20171102,   85.2,16,   68.0,16, 1009.0,16,  981.8,16, 999.9, 0,   3.2,16,   5.4,  16.3,   95.9 ,  75.6 , 0.00I,999.9, 000000,
867050,99999, 20171103,   84.8,20,   69.3,20, 1008.5,20,  981.3,20, 999.9, 0,   3.7,20,   7.0,  23.9,   95.7 ,  78.1 , 0.00I,999.9, 000000,
867050,99999, 20171104,   84.9,22,   67.8,22, 1008.7,22,  981.5,22, 999.9, 0,   4.0,22,   6.6,  17.1,   97.5 ,  74.8 , 0.00I,999.9, 000000,
867050,99999, 20171105,   85.2,24,   69.0,24, 1010.2,24,  983.0,24, 999.9, 0,   3.6,24,   7.2,  15.9,   95.5 ,  76.5 , 0.00I,999.9, 000000,
867050,99999, 20171106,   81.1,24,   70.0,24, 1011.3,24,  983.9,24, 999.9, 0,   3.2,24,   6.2,  17.7,   94.8 ,  76.3 , 0.00I,999.9, 000000,
867050,99999, 20171107,   80.0,15,   71.2,15, 1010.4,15,  982.9,15, 999.9, 0,   2.2,15,   4.3,   9.9,   90.1 ,  75.0 , 0.00I,999.9, 000000,
867050,99999, 20171108,   83.9,14,   70.2,14, 1007.8,14,  980.6,14, 999.9, 0,   3.7,14,   5.6,  17.9,   92.5 ,  75.6 , 0.00I,999.9, 000000,
867050,99999, 20171109,   82.6,21,   69.0,21, 1007.9,21,  980.6,21, 999.9, 0,   2.9,21,   4.9,  10.7,   93.7 ,  72.9 , 0.00I,999.9, 000000,
867050,99999, 20171110,   81.8,24,   70.2,24, 1007.1,24,  979.8,24, 999.9, 0,   2.3,24,   4.9,  17.7,   95.2 ,  73.9 , 0.00I,999.9, 000000,
867050,99999, 20171111,   75.0,11,   71.5,11, 1007.9,11,  980.3,11, 999.9, 0,   2.6,11,   3.9,  10.3,   76.6 ,  73.0 , 0.00I,999.9, 000000,
867050,99999, 20171112,   84.8,12,   65.8,12, 1008.9,12,  981.7,12, 999.9, 0,   3.7,12,   5.4,  11.8,   90.0 ,  75.7 , 0.00I,999.9, 000000,
867050,99999, 20171113,   81.7,17,   61.6,17, 1009.3,17,  982.0,17, 999.9, 0,   2.2,17,   3.3, 999.9,   95.4 ,  70.5 , 0.00I,999.9, 000000,
867050,99999, 20171114,   90.1,13,   65.9,13, 1007.0,13,  980.1,13, 999.9, 0,   2.3,13,   4.1,   9.7,   96.6 ,  78.6 , 0.00I,999.9, 000000,
867050,99999, 20171115,   87.7,24,   66.9,24, 1007.4,24,  980.4,24, 999.9, 0,   4.5,24,   6.0,  18.8,   96.3 ,  79.3 , 0.00I,999.9, 000000,
867050,99999, 20171116,   85.2,24,   67.1,24, 1008.6,24,  981.4,24, 999.9, 0,   3.3,24,   5.4,  28.4,   94.5 ,  76.5 , 0.00I,999.9, 000000,
867050,99999, 20171117,   78.0,23,   70.5,23, 1008.9,23,  981.4,23, 999.9, 0,   3.0,23,   5.6,  13.8,   84.0 ,  73.8*, 0.00I,999.9, 000000,
867050,99999, 20171118,   77.9,24,   71.4,24, 1007.6,24,  980.1,24, 999.9, 0,   3.3,24,   4.5,  17.9,   90.9 ,  72.7 , 0.00I,999.9, 000000,
867050,99999, 20171119,   78.1,24,   71.4,24, 1007.7,24,  980.2,24, 999.9, 0,   3.7,24,   5.4,  15.9,   89.1 ,  70.9 , 0.00I,999.9, 000000,
867050,99999, 20171120,   79.2,24,   72.3,24, 1008.2,24,  980.8,24, 999.9, 0,   2.7,24,   6.4,  17.3,   88.7 ,  75.0 , 0.00I,999.9, 000000,
867050,99999, 20171121,   79.6,24,   71.1,24, 1008.5,24,  981.1,24, 999.9, 0,   3.8,23,   6.0,  18.5,   87.1 ,  75.2 , 0.00I,999.9, 000000,
867050,99999, 20171122,   77.8,21,   71.2,21, 1008.9,21,  981.4,21, 999.9, 0,   3.3,21,   7.6,  18.6,   88.0 ,  75.0 , 0.00I,999.9, 000000,
867050,99999, 20171123,   82.1,22,   71.6,22, 1009.5,22,  982.2,22, 999.9, 0,   2.5,22,   4.5, 999.9,   93.6 ,  74.7 , 0.00I,999.9, 000000,
867050,99999, 20171124,   82.5,18,   71.0,18, 1010.1,18,  982.8,18, 999.9, 0,   3.3,18,   5.6,  18.6,   92.3*,  75.7 , 0.00I,999.9, 000000,
867050,99999, 20171125,   85.5,23,   70.0,23, 1009.3,23,  982.2,23, 999.9, 0,   3.6,23,   6.8,  17.9,   95.0 ,  78.6 , 0.00I,999.9, 000000,
867050,99999, 20171126,   81.5,15,   70.2,15, 1009.7,15,  982.4,15, 999.9, 0,   2.9,15,   5.1,  18.6,   89.6 ,  74.7*, 0.00I,999.9, 000000,
867050,99999, 20171127,   82.8,22,   70.2,22, 1010.5,22,  983.2,22, 999.9, 0,   3.3,22,   6.8,  14.2,   92.7 ,  74.5 , 0.00I,999.9, 000000,
867050,99999, 20171128,   77.1,24,   70.8,24, 1012.8,24,  985.1,24, 999.9, 0,   3.7,24,   7.2,  17.3,   83.8 ,  72.3 , 0.00I,999.9, 000000,
867050,99999, 20171129,   81.9,24,   70.2,24, 1010.3,24,  983.0,24, 999.9, 0,   2.2,24,   3.9,  11.1,   94.8 ,  72.7 , 0.00I,999.9, 000000,
867050,99999, 20171130,   83.6,23,   70.5,23, 1006.2,23,  979.1,23, 999.9, 0,   3.5,23,   5.8,  15.5,   92.7 ,  77.5 , 0.00I,999.9, 000000,
867050,99999, 20171201,   77.9,24,   71.8,24, 1006.7,24,  979.2,24, 999.9, 0,   4.3,24,   6.8,  19.4,   88.0 ,  73.2 , 0.00I,999.9, 000000,
867050,99999, 20171202,   76.1,24,   70.7,24, 1008.8,24,  981.2,24, 999.9, 0,   4.1,24,   6.6,  18.1,   85.1 ,  70.7 , 0.00I,999.9, 000000,
867050,99999, 20171203,   79.6,24,   72.3,24, 1008.8,24,  981.4,24, 999.9, 0,   2.8,24,   4.5,  15.3,   91.6 ,  72.7 , 0.00I,999.9, 000000,
867050,99999, 20171204,   79.6,23,   72.3,23, 1009.1,23,  981.7,23, 999.9, 0,   3.0,23,   5.2,  20.4,   92.3 ,  73.8*, 0.00I,999.9, 000000,
867050,99999, 20171205,   78.6,24,   72.7,24, 1011.1,24,  983.6,24, 999.9, 0,   3.1,24,   7.2,  15.2,   89.6 ,  73.2 , 0.00I,999.9, 000000,
867050,99999, 20171206,   80.8,21,   73.1,21, 1009.9,21,  982.5,21, 999.9, 0,   2.9,21,   5.8,  12.8,   92.3 ,  73.8*, 0.00I,999.9, 000000,
867050,99999, 20171207,   76.3,20,   72.2,20, 1010.2,20,  982.6,20, 999.9, 0,   2.2,20,   5.1,  17.9,   89.4 ,  72.5 , 0.00I,999.9, 000000,
867050,99999, 20171208,   80.4,23,   73.4,23, 1007.7,23,  980.4,23, 999.9, 0,   2.9,23,   5.6,  19.6,   92.7 ,  75.6 , 0.00I,999.9, 000000,
867050,99999, 20171209,   75.9,19,   70.5,19, 1008.3,19,  980.7,19, 999.9, 0,   3.7,19,   6.2,  17.5,   79.3 ,  72.0 , 0.00I,999.9, 000000,
867050,99999, 20171210,   76.3,18,   71.9,18, 1007.2,18,  979.7,18, 999.9, 0,   3.0,18,   4.5,  12.4,   85.3 ,  72.9 , 0.00I,999.9, 000000,
867050,99999, 20171211,   76.4,18,   72.3,18, 1007.8,18,  980.2,18, 999.9, 0,   2.4,18,   3.9,  11.1,   82.4 ,  73.9 , 0.00I,999.9, 000000,
867050,99999, 20171212,   78.5,21,   68.0,21, 1008.1,21,  980.7,21, 999.9, 0,   3.2,21,   5.4,  12.6,   92.8 ,  69.3 , 0.00I,999.9, 000000,
867050,99999, 20171213,   78.4,16,   69.5,16, 1009.2,16,  981.8,16, 999.9, 0,   2.5,16,   4.7,  17.1,   91.2 ,  72.7 , 0.00I,999.9, 000000,
867050,99999, 20171214,   81.1,19,   72.0,19, 1010.1,19,  982.7,19, 999.9, 0,   3.2,19,   5.1,  13.0,   93.4 ,  75.9 , 0.00I,999.9, 000000,
867050,99999, 20171215,   79.1,20,   70.8,20, 1010.0,20,  982.5,20, 999.9, 0,   2.9,20,   4.9,  16.7,   87.4 ,  70.0 , 0.00I,999.9, 000000,
867050,99999, 20171216,   85.2, 6,   71.9, 6, 1010.1, 6,  983.0, 6, 999.9, 0,   5.9, 6,   7.6,  19.2,   88.9 ,  81.9 , 0.00I,999.9, 000000,
867050,99999, 20171231,   85.6, 8,   69.4, 8, 1010.8, 8,  983.6, 8, 999.9, 0,   4.9, 8,   7.8,  17.7,   90.5 ,  77.7 , 0.00I,999.9, 000000,
